Date,Price
1/8/2019,919.8679
2/8/2019,950.0177
3/8/2019,944.5233333
4/8/2019,961.7361333
5/8/2019,920.6185
6/8/2019,979.19715
7/8/2019,977.9493
8/8/2019,972.2879
10/8/2019,961.08135
11/8/2019,962.7313
12/8/2019,969.3762
13/8/2019,930.4308
14/8/2019,977.991
15/8/2019,930.0425
16/8/2019,977.6248
17/8/2019,957.8105
18/8/2019,945.8998333
19/8/2019,943.3586
20/8/2019,934.06275
21/8/2019,949.30825
22/8/2019,983.78395
23/8/2019,939.8947333
24/8/2019,990.5027
25/8/2019,910.1842
27/8/2019,934.2228667
28/8/2019,936.80995
29/8/2019,916.9371
